<?xml version="1.0" encoding="UTF-8" standalone="no"?>
<!-- Created with Inkscape (http://www.inkscape.org/) -->

<svg
   xmlns:dc="http://purl.org/dc/elements/1.1/"
   xmlns:cc="http://creativecommons.org/ns#"
   xmlns:rdf="http://www.w3.org/1999/02/22-rdf-syntax-ns#"
   xmlns:svg="http://www.w3.org/2000/svg"
   xmlns="http://www.w3.org/2000/svg"
   xmlns:sodipodi="http://sodipodi.sourceforge.net/DTD/sodipodi-0.dtd"
   xmlns:inkscape="http://www.inkscape.org/namespaces/inkscape"
   width="248.94666mm"
   height="266.28543mm"
   viewBox="0 0 248.94666 266.28543"
   version="1.1"
   id="svg1861"
   inkscape:version="0.92.4 (5da689c313, 2019-01-14)"
   sodipodi:docname="lungs.svg">
  <defs
     id="defs1855">
    <clipPath
       clipPathUnits="userSpaceOnUse"
       id="clipPath66">
      <path
         d="M 266.33417,4699.4414 519.40155,5025.4385 961.47327,4682.2637 708.40588,4356.2666 Z"
         id="path64"
         inkscape:connector-curvature="0"
         style="clip-rule:evenodd" />
    </clipPath>
  </defs>
  <sodipodi:namedview
     id="base"
     pagecolor="#ffffff"
     bordercolor="#666666"
     borderopacity="1.0"
     inkscape:pageopacity="0.0"
     inkscape:pageshadow="2"
     inkscape:zoom="0.38056743"
     inkscape:cx="510.66328"
     inkscape:cy="708.35985"
     inkscape:document-units="mm"
     inkscape:current-layer="layer1"
     showgrid="false"
     fit-margin-top="0"
     fit-margin-left="0"
     fit-margin-right="0"
     fit-margin-bottom="0"
     inkscape:window-width="1920"
     inkscape:window-height="1016"
     inkscape:window-x="0"
     inkscape:window-y="27"
     inkscape:window-maximized="1" />
  <metadata
     id="metadata1858">
    <rdf:RDF>
      <cc:Work
         rdf:about="">
        <dc:format>image/svg+xml</dc:format>
        <dc:type
           rdf:resource="http://purl.org/dc/dcmitype/StillImage" />
        <dc:title></dc:title>
      </cc:Work>
    </rdf:RDF>
  </metadata>
  <g
     inkscape:label="Layer 1"
     inkscape:groupmode="layer"
     id="layer1"
     transform="translate(66.959233,10.141888)">
    <g
       id="g1838"
       transform="matrix(0.08466666,0,0,0.08466666,676.64166,77.680728)">
      <path
         style="fill:#7ed6f3;stroke-width:3.19148946"
         d="m -8691.4019,1796.6378 c -18.6915,-9.507 -29.5627,-20.9848 -40.7081,-42.9792 -12.6895,-25.0414 -17.3137,-50.2058 -27.1146,-147.5533 -5.1786,-51.4356 -12.4845,-122.2426 -16.2355,-157.349 -8.9291,-83.5697 -9.6763,-185.6143 -1.7362,-237.1183 7.0901,-45.9908 20.5978,-101.2669 37.3894,-153.0046 15.0865,-46.4841 40.1804,-112.80194 44.2217,-116.8687 3.7417,-3.76522 5.3647,-0.18766 35.2667,77.7363 53.5265,139.4889 109.6178,267.8406 145.4662,332.865 44.9869,81.6004 116.1981,160.0901 193.1962,212.9428 28.23,19.3775 83.9728,48.2953 105.5664,54.7649 6.6621,1.996 12.1129,5.4518 12.1129,7.6795 0,9.5972 -47.9478,35.6837 -78.1915,42.5409 -8.7766,1.9899 -46.8351,4.0517 -84.5745,4.5817 -61.3501,0.8616 -70.645,1.7081 -87.766,7.9926 -25.844,9.4865 -49.2374,25.5064 -79.7872,54.6387 -44.6655,42.593 -81.4562,63.0455 -118.5832,65.9224 -19.2615,1.4925 -23.8133,0.69 -38.5227,-6.7917 z m 2695.4331,-9.1831 c -9.9307,-4.0847 -24.2924,-11.0867 -31.9149,-15.56 -13.8591,-8.1332 -43.7258,-32.6165 -48.0862,-39.4187 -5.0364,-7.8565 -46.519,-39.2803 -62.3643,-47.2419 -32.0585,-16.1081 -50.1512,-18.7545 -131.6,-19.2489 -61.3215,-0.3722 -78.7834,-1.5009 -95.7447,-6.1884 -29.4291,-8.1333 -58.6926,-24.3876 -87.9823,-48.8694 -82.8254,-69.2298 -130.7901,-98.0383 -264.6773,-158.9702 -127.0639,-57.8266 -192.863,-95.5005 -244.1489,-139.7899 -78.0792,-67.4273 -154.8223,-207.2839 -186.4936,-339.86557 -15.5309,-65.01495 -19.1991,-99.21342 -19.0713,-177.80078 0.1781,-109.62517 10.3837,-162.3203 59.1351,-305.33768 15.7531,-46.21322 38.5813,-113.20666 50.7294,-148.8743 25.4452,-74.70853 32.0287,-97.28181 44.4301,-152.3394 7.8204,-34.71996 8.4726,-41.34294 5.0513,-51.29499 -3.3656,-9.78977 -4.1802,-10.46566 -5.6837,-4.71613 -0.9653,3.69127 -3.9476,6.71141 -6.6275,6.71141 -6.8275,0 -71.9838,-54.798829 -72.0994,-60.638297 -0.052,-2.632979 7.3059,-9.095745 16.3513,-14.361702 9.0453,-5.265958 25.3568,-17.832448 36.2476,-27.925533 10.8908,-10.093086 21.4137,-18.351065 23.3842,-18.351065 2.4968,0 3.5827,15.15482 3.5827,50.000013 0,27.499979 0.5979,49.401574 1.3287,48.670214 0.7308,-0.73139 2.0628,-41.542565 2.9601,-90.691503 1.2212,-66.891449 0.8361,-83.342875 -1.5317,-65.425534 -1.7397,13.164894 -3.8556,27.320298 -4.7019,31.4564369 -2.3796,11.6297876 -48.0571,54.9705341 -70.3105,66.7136191 -10.7776,5.68733 -20.3416,10.340586 -21.2532,10.340586 -3.5803,0 -48.5128,-39.350172 -48.5128,-42.485651 0,-1.835904 9.3351,-9.670979 20.7447,-17.4112982 11.4095,-7.74031939 26.9602,-20.0496708 34.557,-27.3541288 15.2434,-14.656883 45.5501,-58.288278 53.1928,-76.579694 6.1858,-14.804843 13.126,-14.993653 26.9479,-0.733085 17.7564,18.320043 19.3448,13.128607 19.3448,-63.225828 0,-76.0148 -3.7044,-126.6976 -14.5582,-199.18166 -17.6089,-117.59611 -4.9809,-183.685 43.7117,-228.76574 31.6348,-29.28827 69.1018,-43.19911 116.3509,-43.19911 51.2329,0 98.455,15.54297 160.8786,52.95256 79.3875,47.57585 132.0986,88.83705 201.443,157.68575 151.8649,150.77911 253.0307,329.503954 364.0133,643.08512 27.6263,78.05784 29.1378,86.44131 29.6863,164.64719 l 0.4831,68.9025 22.5425,26.84219 c 59.6155,70.98651 97.8712,149.28294 116.3988,238.22895 6.2918,30.20502 7.1777,44.19479 7.3297,115.7409 l 0.1726,81.38298 20.3045,51.06383 c 38.4479,96.69273 67.2832,190.33113 78.4103,254.62523 15.7576,91.05 15.1844,157.3983 -3.1767,367.7152 -10.5066,120.3478 -16.3614,145.2683 -41.271,175.6673 -22.1673,27.0522 -60.738,34.7008 -97.903,19.4141 z m -2217.5825,-177.7783 c -29.865,-10.4921 -80.0371,-37.2861 -110.1064,-58.8014 -55.6097,-39.7903 -120.4022,-106.9796 -158.4898,-164.3528 -35.3812,-53.2965 -103.6123,-203.3414 -165.4473,-363.8298 -47.1808,-122.45447 -42.7005,-103.29165 -42.9051,-183.5106 -0.1417,-55.57452 1.0621,-76.86651 5.7743,-102.12766 12.7515,-68.35797 42.0463,-139.70062 81.306,-198.00703 19.5416,-29.02222 46.8722,-62.09936 51.3107,-62.09936 1.3402,0 6.4997,7.53989 11.4656,16.75532 19.6738,36.51006 42.2546,66.12823 74.8202,98.1383 61.7069,60.65429 129.0414,93.60584 226.7019,110.94125 42.608,7.56322 198.3685,7.37371 267.5004,-0.32541 164.0798,-18.27338 311.9988,-65.03441 427.4843,-135.13886 12.9547,-7.86406 25.4178,-13.58308 27.6958,-12.70896 4.2424,1.62801 20.1085,55.08507 29.0478,97.87028 14.8601,71.12285 18.746,172.73432 9.3613,244.78335 -18.321,140.65518 -76.6904,280.13518 -158.5469,378.86498 -54.3084,65.503 -113.2982,103.3867 -285.3592,183.2597 -120.0205,55.7151 -172.5961,85.363 -227.6322,128.364 -20.1028,15.7068 -38.773,28.4529 -41.4894,28.3246 -2.7163,-0.1283 -12.8377,-3.0082 -22.492,-6.3999 z m 28.7234,-912.72285 c -91.4521,-5.6175 -175.5555,-33.92157 -236.5703,-79.61512 -42.1536,-31.56852 -88.7722,-87.28376 -114.7986,-137.19919 -7.1691,-13.74948 -7.4923,-17.28683 -7.581,-82.97873 -0.1098,-81.2513 1.3881,-88.86185 36.8395,-187.19024 107.7548,-298.869553 207.9293,-474.48381 353.8814,-620.384 78.5188,-78.49082 177.8879,-151.77438 252.6143,-186.3001 86.7075,-40.06133 172.7646,-34.9605 226.6435,13.43371 53.1486,47.73827 65.6502,112.37723 46.4203,240.01507 -13.2773,88.12778 -15.6342,145.8744 -13.2867,325.531929 1.9949,152.665981 2.5112,163.218671 9.7859,199.992261 11.281,57.02557 31.5344,124.01653 72.9892,241.42172 20.2908,57.46606 36.8923,107.173 36.8923,110.45988 0,15.33025 -118.8121,75.71346 -206.8466,105.12444 -100.8563,33.6946 -201.0676,51.40286 -327.7279,57.91251 -66.0512,3.39466 -70.4667,3.387 -129.2553,-0.22404 z m 557.4469,-566.81434 c -3.8686,-3.8685 -2.4827,-112.765947 1.4351,-112.765947 1.9595,0 11.8214,7.646043 21.9153,16.991171 10.0939,9.34516 25.004,21.193565 33.1336,26.329788 8.1296,5.136256 14.7837,11.044883 14.7868,13.13033 0.01,3.924256 -62.1377,58.442328 -66.6168,58.442328 -1.3895,0 -3.4839,-0.95744 -4.654,-2.12767 z m 56.4439,-81.674807 c -13.5698,-9.22966 -32.2996,-25.761289 -41.622,-36.73698 l -16.9496,-19.9557778 -0.3781,-40.6566392 c -0.2081,-22.36114 -0.1373,-42.810896 0.157,-45.443874 0.715,-6.394282 18.8916,-23.012712 22.6379,-20.697352 1.6276,1.00593 9.4176,14.33231 17.311,29.614214 21.9643,42.523597 57.775,81.8468003 90.3252,99.184918 3.9495,2.103702 7.1809,5.111521 7.1809,6.684 1e-4,3.558351 -46.9786,44.788693 -51.0331,44.788693 -1.6263,0 -14.0594,-7.551543 -27.6292,-16.781202 z m 369.8858,-57.0965131 c -14.4813,-12.4319049 -26.3297,-24.2565009 -26.3297,-26.2768409 0,-2.020341 7.9133,-8.406511 17.5852,-14.191533 35.4225,-21.187086 66.9957,-56.111046 89.2421,-98.712956 4.82,-9.23037 10.0973,-17.60675 11.7274,-18.61421 3.0164,-1.86421 39.2906,26.2973 53.771,41.7452 l 7.9641,8.49612 -14.2907,27.279323 c -7.8599,15.003607 -22.2365,36.740044 -31.9481,48.303162 -19.1012,22.743096 -62.7581,54.85331 -74.3432,54.680427 -4.0249,-0.06 -18.3426,-9.8010959 -33.3781,-22.7086921 z m -303.0283,8.50595775 C -7538.2768,-23.155877 -7571.3855,-63.972697 -7589.9868,-106.03346 l -7.9084,-17.88233 7.3315,-7.82292 c 10.7121,-11.43 49.0377,-42.3774 52.4806,-42.3774 1.622,0 7.7143,9.69415 13.5386,21.54256 21.0894,42.9029 55.3431,82.289427 88.4275,101.678172 7.7303,4.530288 14.0551,10.056735 14.0551,12.281043 0,5.469064 -53.5918,49.604619 -60.2327,49.604619 -2.9029,0 -12.7062,-5.0024042 -21.785,-11.11643635 z M -7246.852,-48.76008 c -12.8868,-8.69617 -47.5503,-39.563331 -47.5503,-42.342512 0,-1.43933 7.7232,-6.975702 17.1627,-12.302998 34.0721,-19.22911 72.1756,-61.12232 92.6161,-101.82754 4.6276,-9.21542 9.9744,-16.75532 11.8817,-16.75532 6.2122,0 53.8714,41.88987 53.8712,47.34987 -3e-4,9.50843 -29.3685,57.59457 -47.2298,77.331988 -16.5528,18.291416 -41.4758,37.468757 -63.1984,48.628949 -9.0722,4.660915 -10.5342,4.654053 -17.5532,-0.08234 z m -193.0604,-16.370234 c -25.9728,-18.242363 -41.2852,-34.509161 -60.6211,-64.399436 -13.1278,-20.29354 -26.8476,-47.96544 -26.8476,-54.15004 0,-3.6066 49.524,-44.69164 53.8714,-44.69164 1.9074,0 7.2525,7.5399 11.8781,16.75532 22.4078,44.64262 55.8211,83.40422 90.0531,104.46741 9.0958,5.59669 16.5379,11.419502 16.5379,12.939512 0,5.249905 -49.4885,44.497374 -56.1484,44.529225 -3.6742,0.01915 -16.5997,-6.935074 -28.7234,-15.450351 z m 122.0415,-42.166916 c -8.0846,-6.35933 -8.6962,-6.3938 -17.8193,-1.00468 -9.062,5.35302 -9.9208,5.32873 -21.0538,-0.59547 -19.0073,-10.11437 -46.5929,-33.79155 -62.7823,-53.88725 -16.9542,-21.04503 -40.8335,-64.69031 -40.8335,-74.63339 0,-3.56193 4.2835,-9.52628 9.5187,-13.25413 8.8578,-6.30725 11.2006,-6.54396 33.7416,-3.4088 35.2584,4.90401 113.4267,4.12312 156.831,-1.56667 20.7088,-2.71468 40.5296,-4.17211 44.0465,-3.23872 3.5168,0.93338 12.5292,7.43425 20.0275,14.44637 l 13.6333,12.7493 -4.8442,11.59385 c -8.6484,20.69856 -27.5184,49.14185 -45.455,68.51547 -18.6781,20.17465 -61.4917,50.8695 -70.9534,50.8695 -3.1268,0 -9.4526,-2.96342 -14.0571,-6.58538 z m -79.6201,-158.54391 c -21.731,-1.35734 -27.0618,-7.6574 -14.8481,-17.54748 5.2626,-4.2614 8.1219,-10.59881 9.3088,-20.63199 l 1.7131,-14.48135 63.8298,-1.00101 c 35.1064,-0.55057 68.1383,-1.45471 73.4042,-2.0092 9.2252,-0.9714 9.6376,-0.45923 11.3043,14.0369 1.1084,9.64101 4.4278,17.91705 9.2411,23.04064 l 7.5115,7.99557 -8.0816,3.07261 c -19.1289,7.2728 -96.5852,11.07297 -153.3831,7.52531 z m -47.9751,-9.33881 c -1.1703,-1.17019 -2.1277,-27.204 -2.1277,-57.85286 v -55.7252 l 16.7553,2.09183 c 45.2323,5.64709 116.2659,5.75758 160.3724,0.24958 24.5744,-3.06891 48.9893,-5.74558 54.2553,-5.94814 l 9.5744,-0.36827 0.8768,53.83328 c 1.0924,67.07455 -2.5153,74.22699 -26.1814,51.9069 -10.5066,-9.90907 -11.3975,-12.18674 -11.3975,-29.13859 v -18.38927 l -15.1596,1.92808 c -63.3186,8.05318 -83.3775,9.0074 -114.9574,5.46862 -18.0272,-2.02009 -34.1841,-2.80302 -35.9043,-1.73988 -1.7202,1.06312 -3.1496,8.67004 -3.1765,16.90421 -0.055,16.91151 -0.6644,18.10889 -15.3556,30.18214 -11.0341,9.06785 -13.9931,10.17871 -17.5742,6.59757 z m 54.5844,-122.56497 c -18.8349,-1.51344 -38.9413,-3.96728 -44.6808,-5.45301 l -10.4356,-2.70134 -0.8727,-56.74159 -0.8727,-56.74156 28.0004,2.68635 c 46.8595,4.49569 135.9316,2.78058 174,-3.35043 18.8637,-3.03804 35.7387,-4.63305 37.5,-3.5445 1.9387,1.19818 3.2025,23.34677 3.2025,56.12521 v 54.14595 l -8.1619,3.10315 c -24.53,9.3263 -127.1662,16.53064 -177.6792,12.47177 z m -34.3717,-134.77501 -20.7447,-3.83023 -0.8708,-58.48998 -0.8708,-58.48998 29.5942,2.63891 c 47.8335,4.2653 131.1383,2.62695 170.9198,-3.3615 19.8036,-2.9811 37.3967,-4.56099 39.0958,-3.51089 4.1182,2.54518 4.1052,112.23013 -0.013,114.77566 -17.6705,10.92096 -173.626,18.29672 -217.1099,10.26801 z m 4.7872,-133.45015 c -10.5319,-1.52777 -20.9441,-3.46181 -23.1383,-4.29788 -2.9926,-1.14039 -3.9893,-16.24947 -3.9893,-60.47455 0,-32.42489 1.1005,-59.63451 2.4455,-60.46577 1.345,-0.83128 9.603,0.0191 18.3511,1.89147 27.064,5.79019 135.1891,4.61119 177.7339,-1.938 20.5482,-3.16311 38.8593,-4.82467 40.6915,-3.69233 2.1139,1.30647 3.3312,23.01086 3.3312,59.39624 0,67.5556 5.75,60.30699 -53.9869,68.0573 -42.0307,5.45311 -128.71,6.27112 -161.4387,1.52352 z m 5.6054,-136.7227 c -9.2043,-1.44987 -20.3347,-3.53954 -24.7341,-4.64373 l -7.9989,-2.00761 v -49.78476 -49.78476 l 27.9255,2.77109 c 45.6556,4.53049 132.4148,2.94002 172.4426,-3.16122 19.8036,-3.01854 37.3967,-4.62909 39.0958,-3.57898 3.8445,2.37605 4.1683,96.23369 0.3401,98.59963 -15.4435,9.54459 -166.4132,17.99476 -207.071,11.59034 z m -5.6054,-118.59646 c -10.5319,-1.52775 -20.9441,-3.4618 -23.1383,-4.29789 -2.975,-1.13367 -3.9893,-15.292 -3.9893,-55.6873 0,-29.79197 1.0771,-54.82367 2.3936,-55.62617 1.3165,-0.8025 14.6011,1.4118 29.5213,4.9206 40.306,9.4789 129.7579,9.5138 173.6771,0.068 17.4107,-3.7446 32.8496,-6.0706 34.3085,-5.1689 1.459,0.9017 2.6527,24.5689 2.6527,52.59391 0,60.14134 5.4029,53.96905 -53.9869,61.67434 -42.0307,5.4531 -128.71,6.2711 -161.4387,1.52351 z"
         id="path1842"
         inkscape:connector-curvature="0" />
      <path
         style="fill:#fa545a;stroke-width:3.19148946"
         d="m -8691.4019,1796.6378 c -18.6915,-9.507 -29.5627,-20.9848 -40.7081,-42.9792 -12.6895,-25.0414 -17.3137,-50.2058 -27.1146,-147.5533 -5.1786,-51.4356 -12.4845,-122.2426 -16.2355,-157.349 -8.9291,-83.5697 -9.6763,-185.6143 -1.7362,-237.1183 7.0901,-45.9908 20.5978,-101.2669 37.3894,-153.0046 15.0865,-46.4841 40.1804,-112.80194 44.2217,-116.8687 3.7417,-3.76522 5.3647,-0.18766 35.2667,77.7363 53.5265,139.4889 109.6178,267.8406 145.4662,332.865 44.9869,81.6004 116.1981,160.0901 193.1962,212.9428 28.23,19.3775 83.9728,48.2953 105.5664,54.7649 6.6621,1.996 12.1129,5.4518 12.1129,7.6795 0,9.5972 -47.9478,35.6837 -78.1915,42.5409 -8.7766,1.9899 -46.8351,4.0517 -84.5745,4.5817 -61.3501,0.8616 -70.645,1.7081 -87.766,7.9926 -25.844,9.4865 -49.2374,25.5064 -79.7872,54.6387 -44.6655,42.593 -81.4562,63.0455 -118.5832,65.9224 -19.2615,1.4925 -23.8133,0.69 -38.5227,-6.7917 z m 2695.4331,-9.1831 c -9.9307,-4.0847 -24.2924,-11.0867 -31.9149,-15.56 -13.8591,-8.1332 -43.7258,-32.6165 -48.0862,-39.4187 -5.0364,-7.8565 -46.519,-39.2803 -62.3643,-47.2419 -32.0585,-16.1081 -50.1512,-18.7545 -131.6,-19.2489 -61.3215,-0.3722 -78.7834,-1.5009 -95.7447,-6.1884 -29.4291,-8.1333 -58.6926,-24.3876 -87.9823,-48.8694 -82.8254,-69.2298 -130.7901,-98.0383 -264.6773,-158.9702 -127.0639,-57.8266 -192.863,-95.5005 -244.1489,-139.7899 -78.0792,-67.4273 -154.8223,-207.2839 -186.4936,-339.86557 -15.5309,-65.01495 -19.1991,-99.21342 -19.0713,-177.80078 0.1781,-109.63175 10.3865,-162.33763 59.1395,-305.33768 15.7554,-46.21322 39.3898,-115.61978 52.5208,-154.2368 13.131,-38.61703 29.0642,-91.75533 35.4071,-118.08511 6.3429,-26.32979 12.863,-53.41782 14.489,-60.19565 2.8071,-11.70089 3.4609,-12.22238 12.9442,-10.32571 22.5682,4.51363 94.2587,62.14038 171.0432,137.48918 63.5939,62.40475 154.6262,159.21501 156.2334,166.14974 0.5617,2.42333 -5.0313,7.36895 -12.7659,11.28833 -22.1328,11.21537 -36.4336,24.10446 -63.0141,56.79341 -13.7367,16.89358 -28.3817,33.81521 -32.5445,37.60363 -7.7417,7.04544 -78.3598,48.96304 -82.4875,48.96304 -1.2558,0 -5.0193,-3.02515 -8.3631,-6.72259 -8.5604,-9.46548 -25.3153,-17.36387 -47.1051,-22.20562 -15.1165,-3.35891 -19.3172,-5.71672 -21.9958,-12.34586 -1.821,-4.5067 -8.9377,-20.44053 -15.8149,-35.40852 -10.0623,-21.9001 -11.9231,-28.75561 -9.5286,-35.10639 4.1381,-10.97578 -0.6776,-21.65128 -10.9274,-24.22382 -22.7807,-5.71761 -32.4327,24.3016 -11.3233,35.21768 7.5064,3.88168 10.3943,9.37589 17.668,33.61279 4.7823,15.93498 7.8197,30.38898 6.7499,32.12005 -3.0459,4.92826 -17.2067,3.69683 -27.5156,-2.39272 -8.502,-5.02232 -10.1887,-5.08749 -18.0456,-0.69722 -10.6315,5.9407 -13.1851,20.05864 -5.22,28.85997 8.045,8.88958 19.1406,7.55914 28.9709,-3.47371 7.7228,-8.66751 10.3825,-9.57447 28.0775,-9.57447 35.7946,0 78.3345,15.61254 78.3345,28.74948 0,3.7988 -6.2842,9.48393 -17.7083,16.0201 -15.1455,8.6654 -18.956,9.64228 -26.3298,6.75025 -5.0122,-1.9658 -42.4656,-3.77109 -89.4652,-4.31231 l -80.8437,-0.93092 -6.3906,-8.7766 c -7.9541,-10.92396 -26.02,-12.42769 -31.2778,-2.60342 -11.0504,20.64782 9.398,37.48248 29.5213,24.30415 5.2899,-3.46424 10.2808,-3.92662 19.8345,-1.83747 19.453,4.25387 79.4821,9.65802 107.2808,9.65802 13.6342,0 25.5481,1.22776 26.4756,2.7284 2.3514,3.80474 -30.6436,25.995 -38.6524,25.995 -8.3946,0 -14.5189,7.4042 -14.5189,17.5532 0,11.00629 6.3101,17.55319 16.9182,17.55319 11.9589,0 19.5216,-8.16871 18.8698,-20.38181 -0.8501,-15.92745 -0.3803,-16.93602 9.8683,-21.18109 13.2267,-5.4787 15.7598,-2.14292 19.8192,26.1 4.5635,31.75028 1.7352,44.65006 -12.1039,55.20562 -12.8154,9.77477 -14.4971,20.67428 -4.7014,30.47005 7.2267,7.22665 10.5924,7.77086 19.2856,3.11834 10.658,-5.70399 13.424,-14.66461 7.8524,-25.43885 -4.5216,-8.74386 -4.4936,-11.25329 0.3102,-27.77828 3.8876,-13.37276 4.8561,-25.61978 3.6704,-46.41463 -1.4904,-26.13881 -1.1037,-28.61033 5.1779,-33.09316 16.1907,-11.55453 95.9658,-52.71029 108.8533,-56.15716 12.6489,-3.38308 14.8746,-3.12725 21.1156,2.42719 8.1904,7.28926 18.6706,28.81615 18.7708,38.55587 0.059,5.76466 -6.0043,9.22427 -39.3405,22.44581 -35.1105,13.92524 -40.4209,15.22487 -48.6702,11.91109 -12.2363,-4.91538 -22.8529,-0.66415 -25.5916,10.24768 -5.6505,22.51356 24.5126,32.63926 34.5336,11.59283 3.4586,-7.26374 7.9769,-9.70513 26.4946,-14.31575 12.2788,-3.05725 29.9339,-7.94307 39.2336,-10.85741 10.3426,-3.24118 18.0534,-4.15395 19.8568,-2.35053 1.6216,1.62156 3.9134,13.33219 5.093,26.02359 2.057,22.13327 1.8001,23.39451 -6.2931,30.89502 -9.8234,9.10408 -10.9014,20.86293 -2.6012,28.37455 7.8477,7.10202 18.3174,6.65997 26.0785,-1.1011 8.2978,-8.29777 8.0585,-11.6009 -1.8796,-25.94151 -5.7081,-8.23679 -7.5923,-14.03467 -6.0946,-18.75341 2.4599,-7.75054 6.9503,-6.89174 21.053,4.02638 8.3646,6.47575 9.0717,8.47755 7.4199,21.00523 -2.112,16.0171 4.3177,26.04629 16.6981,26.04629 8.2409,0 20.25,-10.2158 20.25,-17.22616 0,-2.45311 -10.8431,-15.55241 -24.0958,-29.10961 -13.2527,-13.55719 -23.6649,-26.82737 -23.1383,-29.4893 1.2408,-6.27191 34.1753,-15.10608 38.8582,-10.42314 5.7751,5.77503 23.7891,3.8669 27.4126,-2.90369 12.1954,-22.78739 -16.0367,-41.08305 -31.2239,-20.23442 -5.7434,7.88435 -8.568,8.81148 -30.1687,9.90226 l -23.832,1.20345 -2.1688,-12.29585 c -3.9516,-22.40253 -11.69,-42.06386 -21.3304,-54.19468 l -9.5193,-11.97856 17.3918,-16.14641 c 9.5655,-8.88054 25.4868,-26.43603 35.3807,-39.01216 9.894,-12.57613 22.9438,-26.64495 28.9997,-31.26399 13.5616,-10.34391 35.9079,-20.70629 44.8553,-20.80022 8.4037,-0.0881 123.0454,115.49579 148.7076,149.92992 33.2249,44.58208 42.6678,72.13392 40.0072,116.73017 -2.2469,37.66075 -14.405,74.05998 -54.2869,162.52516 -16.618,36.86171 -35.6496,82.81915 -42.2924,102.12771 -6.6429,19.3085 -13.2228,36.4116 -14.622,38.0068 -1.4305,1.6309 -8.3409,-2.8962 -15.7871,-10.3425 -7.2837,-7.2836 -22.5083,-17.8043 -33.8326,-23.3792 -17.3549,-8.5438 -24.1947,-10.13463 -43.5373,-10.12621 -12.6213,0.006 -28.3271,1.79031 -34.9017,3.96621 -10.6932,3.539 -12.8247,3.2712 -20.2117,-2.5394 -10.6285,-8.36048 -40.4512,-19.52192 -52.1614,-19.52192 -6.096,0 -10.7565,-2.54696 -14.157,-7.73668 -6.9153,-10.55412 -16.5865,-13.07594 -26.1402,-6.81612 -14.5532,9.53566 -6.9585,33.70172 10.5915,33.70172 3.7077,0 7.6288,-1.43615 8.7137,-3.19147 1.0848,-1.75532 6.1552,-3.19149 11.2675,-3.19149 11.7041,0 44.5835,14.32136 44.5835,19.41936 0,6.5667 -10.6817,12.2884 -23.1383,12.394 -13.3978,0.1137 -24.734,8.9366 -24.734,19.2505 0,7.9797 10.8447,19.1489 18.5926,19.1489 8.3467,0 19.7053,-13.3255 19.7053,-23.1175 0,-7.4117 2.0512,-8.9413 18.351,-13.6839 10.0931,-2.9367 23.2431,-6.1353 29.2221,-7.1079 10.8236,-1.7608 10.8618,-1.7229 8.7766,8.7031 -4.5044,22.5223 -18.8574,48.4006 -31.1478,56.1592 -14.5245,9.1689 -17.9597,18.0973 -11.0313,28.6714 11.9543,18.2445 38.3391,3.3765 31.0605,-17.5029 -2.6826,-7.6953 -2.2273,-10.8558 2.4215,-16.8099 8.1553,-10.4451 17.9736,-30.5757 22.8135,-46.775 4.1465,-13.8784 4.1861,-13.9069 17.2391,-12.4356 16.8503,1.8992 32.7682,9.5483 49.2767,23.6789 22.3161,19.1017 28.7839,40.8515 21.1643,71.1696 -2.4422,9.7171 -6.0879,25.8959 -8.1016,35.9528 -3.5721,17.8399 -3.9866,18.372 -17.0126,21.8412 -7.3431,1.9557 -25.9177,9.3744 -41.2767,16.4861 -26.795,12.4068 -28.8616,12.8517 -51.048,10.9917 -21.0112,-1.7615 -23.8746,-2.8601 -31.3604,-12.032 -13.3103,-16.3085 -34.8788,-12.2532 -34.8788,6.5579 0,13.3913 9.7651,20.3208 25.0072,17.7457 12.7242,-2.1497 38.8226,3.3864 38.8226,8.2353 0,6.9953 -20.2829,31.3405 -28.4963,34.2038 -22.5167,7.8493 -17.8979,35.6638 5.9222,35.6638 10.853,0 16.867,-10.8668 14.5532,-26.2965 -2.0733,-13.8251 -1.8065,-14.3741 13.8095,-28.4141 23.533,-21.1583 91.3184,-52.3491 96.289,-44.3065 1.0786,1.7451 -0.2642,20.0068 -2.9838,40.5816 -4.2836,32.4054 -5.7986,37.6447 -11.3279,39.174 -3.5106,0.971 -14.2516,5.8929 -23.8688,10.9374 -15.326,8.039 -18.6768,8.7222 -27.1277,5.5311 -8.1243,-3.0679 -10.8975,-2.7046 -17.6205,2.3079 -10.0578,7.4989 -11.5007,14.6231 -4.9779,24.5782 7.6317,11.6474 21.2871,10.5357 31.3271,-2.5506 7.0979,-9.2514 31.9134,-21.5425 43.494,-21.5425 6.4813,0 3.6945,16.4731 -4.4177,26.1139 -9.9868,11.8687 -10.0137,16.822 -0.1449,26.6907 9.5029,9.5029 15.6582,9.8737 24.0813,1.4507 8.6815,-8.6815 8.0166,-18.6902 -1.9313,-29.0737 -8.2736,-8.6357 -8.2927,-8.777 -3.9066,-28.898 l 4.4077,-20.2198 14.5877,0.1698 c 15.9518,0.1857 43.1547,12.2382 60.7199,26.9024 l 10.3128,8.6094 -5.393,11.3649 c -2.9661,6.2506 -5.393,14.3286 -5.393,17.9511 0,3.6224 -2.8394,8.1058 -6.3098,9.9631 -15.3194,8.1987 -16.0181,29.69 -1.149,35.3432 16.6366,6.3253 31.8277,-12.5004 22.0852,-27.3693 -11.1792,-17.0616 -1.5448,-32.8578 26.1377,-42.8546 10.0532,-3.6305 26.1774,-10.4191 35.8317,-15.086 9.6542,-4.6668 19.7074,-9.4761 22.3404,-10.6872 2.633,-1.2112 6.1942,-6.1524 7.9138,-10.9804 2.7208,-7.6392 1.973,-9.7703 -5.7631,-16.4247 -11.151,-9.5916 -13.3072,-9.5461 -23.3461,0.4928 -5.8637,5.8637 -7.6164,10.2231 -6.2688,15.5923 2.3629,9.4146 -1.8576,12.9199 -25.2445,20.9662 -24.0613,8.2782 -26.6315,8.0356 -39.5826,-3.7359 -10.3787,-9.4335 -10.7108,-10.3972 -6.8415,-19.8532 2.2367,-5.4662 6.1641,-15.6832 8.7274,-22.7045 2.5634,-7.0212 8.8734,-16.1014 14.0224,-20.1781 13.2362,-10.4798 12.4474,-24.2738 -1.8085,-31.6265 -15.3304,-7.907 -28.7681,7.8107 -22.9328,26.8238 2.8037,9.1354 2.0122,12.3777 -6.2725,25.6964 -7.4434,11.9663 -11.154,15.1212 -17.2655,14.6801 -11.6529,-0.841 -37.594,-8.8222 -41.5577,-12.7859 -5.6619,-5.6618 19.8189,-95.3628 46.5238,-163.78 19.0806,-48.8836 52.5885,-114.68989 61.3084,-120.40332 16.1888,-10.60734 82.324,7.97374 82.324,23.12942 0,3.98678 -11.9984,15.151 -34.9535,32.5234 -30.6216,23.1743 -36.5777,26.4526 -48.0602,26.4526 -23.284,0 -32.9449,15.181 -19.5621,30.7395 6.8321,7.9427 8.8541,8.6454 16.8712,5.8633 6.3629,-2.208 10.0617,-6.3923 12.2697,-13.8801 2.7549,-9.3427 6.4434,-12.2441 28.7234,-22.5952 14.0594,-6.5318 32.5265,-17.2306 41.0381,-23.7751 21.3638,-16.4264 29.6496,-11.8106 19.9227,11.0985 -2.6689,6.2859 9.3455,22.1236 16.7828,22.1236 10.0923,0 19.6274,-9.4134 19.6274,-19.3768 0,-7.1963 -2.4245,-10.9148 -10.199,-15.6428 -11.7066,-7.1192 -30.797,-44.05155 -23.9806,-46.39292 42.8817,-14.72949 44.0704,-14.97552 53.4924,-11.07281 12.8622,5.32771 25.3681,-2.49629 25.3681,-15.87089 0,-20.74207 -21.9527,-25.72012 -33.4675,-7.58921 -5.4289,8.54819 -9.83,10.90073 -28.3602,15.15958 -29.1754,6.70548 -35.3359,6.39916 -57.8532,-2.87659 -10.5319,-4.33847 -22.9809,-7.92226 -27.6645,-7.96391 -10.8091,-0.096 -18.6122,-3.05888 -18.6122,-7.06688 0,-1.71425 9.2783,-18.47464 20.6184,-37.24532 11.3402,-18.77065 26.5044,-46.68853 33.6982,-62.03972 7.1938,-15.35119 14.3905,-27.10104 15.9927,-26.11082 1.6023,0.99022 5.8196,8.37073 9.3718,16.40113 16.9745,38.37377 51.0486,73.69921 116.5955,120.87753 128.4708,92.46873 206.1523,237.53053 242.631,453.08713 11.0846,65.5006 13.4917,95.1678 7.5992,93.6614 -2.467,-0.6307 -16.3339,-7.2579 -30.8153,-14.7269 l -26.3298,-13.5801 v -20.2145 c 0,-16.1612 1.2798,-21.3726 6.383,-25.9909 7.9742,-7.2166 8.2461,-21.2607 0.5465,-28.2288 -7.2843,-6.5922 -13.0955,-6.6744 -22.1768,-0.3137 -8.2858,5.8036 -9.5786,20.9109 -2.3059,26.9467 5.6164,4.6612 6.0192,12.9889 1.4279,29.5213 -4.1221,14.8432 -11.8338,15.695 -21.6679,2.3936 -8.8319,-11.9457 -23.1989,-13.1091 -30.6429,-2.4813 -6.5404,9.3376 -6.2757,16.2661 0.8682,22.7313 7.9054,7.1542 18.1158,6.641 29.075,-1.4615 l 9.121,-6.7435 29.8455,14.7527 c 30.9556,15.3014 60.1647,34.8129 60.1647,40.1897 0,1.7026 -6.1037,6.1937 -13.5638,9.9802 -7.4601,3.7866 -19.7323,11.1101 -27.2714,16.2745 l -13.7075,9.3899 -27.7818,-3.4027 c -15.2801,-1.8715 -42.8617,-4.9454 -61.2925,-6.8307 -27.5823,-2.8215 -35.6816,-4.9188 -45.782,-11.8554 -11.4342,-7.8524 -12.8495,-8.1044 -20.7447,-3.6942 -5.8138,3.2475 -8.7779,7.8318 -9.4436,14.6056 -1.7251,17.5537 15.7642,26.6222 28.724,14.8938 5.5497,-5.0224 9.1112,-4.8249 57.5387,3.1916 28.3925,4.7 52.7584,9.6811 54.1463,11.0689 4.1109,4.111 -6.7595,16.6252 -14.4415,16.6252 -11.2999,0 -21.2738,8.8307 -21.2738,18.8353 0,15.4951 14.7652,23.7413 28.9332,16.1588 4.6607,-2.4943 6.1732,-6.7285 6.1732,-17.282 0,-12.6215 1.4321,-15.2388 14.7556,-26.9666 17.5824,-15.4767 56.7196,-38.6179 65.3119,-38.6179 4.7502,0 6.1105,2.2988 6.1378,10.3724 0.019,5.7048 0.9074,15.6476 1.9735,22.0952 1.9084,11.5409 1.6749,11.8564 -15.0357,20.3243 -9.3357,4.7308 -22.3103,12.1328 -28.8323,16.4488 -6.522,4.3161 -14.4925,7.4452 -17.7122,6.9537 -3.2197,-0.4915 -9.7816,0.1376 -14.582,1.3982 -18.417,4.8361 -12.5682,34.1096 6.8151,34.1096 10.3084,0 15.6553,-5.0912 19.0584,-18.1471 1.7403,-6.6766 7.2102,-11.6186 21.3211,-19.2632 28.9907,-15.7058 38.3438,-13.1421 22.1717,6.0774 -9.3085,11.0626 -9.7501,14.6176 -3.0105,24.2398 6.1341,8.7576 20.6702,9.4089 28.0478,1.2567 7.0503,-7.7905 6.6561,-15.1845 -1.4135,-26.5173 -6.9409,-9.7476 -6.3956,-25.0931 0.8917,-25.0931 4.8965,0 32.2125,17.6845 39.1404,25.3396 3.5942,3.9717 4.7829,8.4921 3.3884,12.8858 -5.4307,17.1105 19.1631,30.095 31.3973,16.5765 10.4707,-11.5701 4.2152,-25.5055 -13.8671,-30.8916 -4.3883,-1.3072 -15.1596,-9.017 -23.9362,-17.1329 -8.7766,-8.1159 -20.856,-18.4319 -26.8432,-22.9245 l -10.8857,-8.1684 2.907,-23.5383 2.907,-23.5384 23.1321,-14.0014 c 12.7226,-7.7007 30.8761,-21.079 40.3411,-29.7294 11.4114,-10.4294 20.0151,-15.7281 25.5382,-15.7281 9.8846,0 21.095,-10.1763 21.095,-19.1489 0,-3.5107 -2.8723,-9.2554 -6.3829,-12.766 -3.5107,-3.5106 -9.2554,-6.383 -12.766,-6.383 -9.2862,0 -19.1489,11.3363 -19.1489,22.0098 0,6.4873 -3.1839,12.0394 -10.6765,18.618 -13.7339,12.0585 -47.8071,32.7765 -53.9049,32.7765 -3.9623,0 -5.0057,-12.2022 -6.6179,-77.3936 -2.7206,-110.0117 -13.6022,-179.8846 -40.9022,-262.6413 l -12.6804,-38.4392 14.2687,-22.1991 c 7.8478,-12.2096 20.3321,-28.1014 27.743,-35.3152 11.2295,-10.931 13.1257,-14.5045 11.3823,-21.4504 -4.2029,-16.7457 -27.4647,-19.1986 -34.5521,-3.6434 -2.7073,5.9419 -2.6391,9.9892 0.2761,16.3875 3.6245,7.9549 2.9015,9.4813 -11.3359,23.9361 -8.364,8.4917 -16.3223,15.4394 -17.6852,15.4394 -1.3628,0 -8.4104,-11.8484 -15.6612,-26.3298 -7.2508,-14.4814 -20.9095,-38.2262 -30.3527,-52.7662 l -17.1695,-26.43655 6.3435,-18.83043 c 3.8335,-11.37951 5.5957,-22.56964 4.4535,-28.28033 -1.6983,-8.49172 -0.1698,-10.80961 15.0753,-22.8601 14.4635,-11.43274 18.5564,-13.15196 27.7567,-11.65895 8.6273,1.40001 12.3719,0.17106 18.6711,-6.12827 7.951,-7.95096 8.0547,-16.45478 0.3188,-26.12426 -8.0038,-10.00417 -31.1335,-0.40816 -31.1335,12.9166 0,5.27592 -31.8175,30.96638 -38.3516,30.96638 -5.9124,0 -31.8612,-23.3654 -31.8612,-28.68912 0,-9.57288 -9.5932,-19.18322 -19.1489,-19.18322 -9.7316,0 -19.149,9.65276 -19.149,19.62744 0,8.523 15.3584,18.94242 24.5288,16.64078 20.0699,-5.03723 46.959,43.30768 31.3107,56.29462 -4.0462,3.35805 -9.1164,-0.60387 -32.3286,-25.26208 -15.1414,-16.0846 -44.9367,-43.06905 -66.2118,-59.96541 -47.5187,-37.73863 -60.5419,-49.7798 -72.6164,-67.14073 -13.5888,-19.5383 -18.1576,-35.02902 -23.6805,-80.29019 -7.3492,-60.22857 -11.7626,-73.53424 -31.7168,-95.62111 -9.292,-10.28511 -28.7517,-21.56971 -46.6716,-27.06453 -2.8337,-0.86891 -11.8318,-13.1603 -19.9958,-27.3142 -8.1639,-14.15391 -24.1566,-38.08235 -35.5393,-53.17433 -11.3826,-15.09198 -20.6957,-28.71096 -20.6957,-30.26439 0,-8.93014 29.7816,-88.67355 38.3859,-102.78224 15.7917,-25.89424 32.6808,-47.0879 37.5239,-47.0879 3.5377,0 3.8938,4.16451 1.8421,21.54255 -4.1489,35.14175 -2.3179,67.88474 4.8513,86.75241 7.8745,20.72403 20.4777,39.42855 30.0015,44.52555 3.9016,2.0881 9.4115,7.83473 12.2441,12.77034 9.7899,17.05784 32.2649,13.83427 34.1001,-4.89096 1.4243,-14.53146 -6.3089,-20.72806 -24.4594,-19.59942 l -14.8086,0.92081 -7.9788,-15.95745 c -6.9149,-13.82977 -7.9787,-20.21275 -7.9787,-47.87234 0,-17.55319 1.1423,-36.01484 2.5384,-41.02586 2.854,-10.24405 2.5902,-10.26463 33.3393,2.60294 29.0027,12.13676 66.1873,16.93312 89.4136,11.53325 10.0791,-2.34329 22.5791,-4.10751 27.7777,-3.92049 20.9312,0.753 32.2131,-19.86351 17.9389,-32.78145 -8.8747,-8.03151 -19.6821,-5.07536 -28.2987,7.74055 -4.1306,6.14361 -9.2065,11.17021 -11.2799,11.17021 -4.4459,0 -4.3446,-3.61031 1.1649,-41.48936 3.5556,-24.44515 5.5195,-30.00387 13.1854,-37.3201 10.3575,-9.88491 11.6247,-21.55628 3.1712,-29.20653 -13.1804,-11.92813 -34.6728,-0.27543 -30.9292,16.7692 1.2327,5.61236 -1.0349,17.75531 -6.1751,33.06756 -4.4677,13.30906 -8.1231,30.09383 -8.1231,37.29955 0,8.55344 -1.6206,13.72318 -4.6685,14.89276 -6.1173,2.34744 -33.1479,-6.63571 -59.345,-19.72225 -22.4618,-11.22064 -30.181,-18.06993 -27.6876,-24.56755 1.3534,-3.52688 31.735,-16.86102 52.0872,-22.86048 11.54,-3.40177 36.6486,-30.30884 44.7057,-47.90786 l 7.7417,-16.9102 20.8256,-2.13364 c 16.1631,-1.65597 22.388,-1.03934 27.804,2.75422 14.3964,10.08364 31.0901,2.07272 31.0901,-14.91948 0,-15.17358 -19.4396,-21.80179 -31.6179,-10.78059 -4.834,4.37476 -9.6694,4.9275 -27.3022,3.12099 -12.5225,-1.28298 -22.0704,-3.87007 -22.9741,-6.2251 -0.8505,-2.21633 0.8053,-8.57729 3.6795,-14.13542 4.7241,-9.13536 4.7544,-10.82525 0.316,-17.59919 -6.7649,-10.32453 -16.4974,-12.78676 -25.9809,-6.57296 -10.463,6.85563 -10.3926,20.6001 0.1564,30.51025 9.321,8.75662 9.9541,15.6143 2.7402,29.67977 -8.1327,15.85685 -14.994,23.51301 -37.8943,42.28395 -21.9194,17.967 -35.2395,22.00669 -42.7446,12.96354 -2.4693,-2.97527 -3.3855,-17.94026 -2.7844,-45.47872 l 0.8957,-41.04428 11.2698,-0.9489 c 8.6994,-0.73248 13.0119,0.9054 18.9074,7.18086 4.2007,4.47134 10.755,8.12974 14.5653,8.12974 16.1651,0 23.6645,-24.03769 10.3984,-33.32968 -9.5497,-6.68885 -15.0589,-6.25781 -23.6933,1.85374 -6.4792,6.08688 -8.3067,6.38905 -16.961,2.8043 -7.3324,-3.03718 -9.6965,-6.06498 -9.6875,-12.40704 0.016,-10.61774 10.0133,-27.19111 20.5804,-34.11498 7.5038,-4.91668 8.738,-4.93006 15.9975,-0.1733 10.3851,6.80457 16.3184,6.50145 24.0485,-1.22869 8.1264,-8.12636 8.1264,-17.40556 0,-25.53192 -8.9037,-8.90365 -18.0431,-7.96394 -28.1054,2.88977 -10.8346,11.68659 -32.2397,21.02062 -37.0873,16.17239 -1.8834,-1.88358 -3.4243,-14.42607 -3.4243,-27.87217 0,-23.087744 -0.4677,-24.710138 -8.4089,-29.171393 -7.5462,-4.239351 -9.2651,-4.162947 -16.7553,0.74483 -12.406,8.128724 -11.3747,21.836043 2.4354,32.369493 15.2936,11.66505 17.3088,34.80443 5.9826,68.69687 -6.1138,18.29509 -8.3134,32.58581 -9.3333,60.6383 -1.9995,55.00146 -2.358,56.33949 -16.3124,60.8867 -38.189,12.44422 -81.2936,63.74071 -99.7268,118.67936 -4.6225,13.77702 -9.723,25.22257 -11.3345,25.43458 -2.7063,0.35604 -101.5299,-128.10802 -105.5922,-137.2629 -1.0498,-2.36576 6.9774,-12.11959 19.1648,-23.28712 23.5001,-21.53359 46.5746,-54.19752 59.1721,-83.76326 12.7032,-29.81346 12.4187,-29.58096 23.4823,-19.19374 10.8543,10.19071 21.4125,30.82149 21.5178,42.04554 0.039,4.11144 -2.8023,11.12694 -6.3129,15.58998 -7.9538,10.11156 -8.1624,20.61163 -0.5466,27.50387 10.7256,9.70654 26.3943,4.84162 30.6432,-9.51431 1.394,-4.71012 -0.4794,-9.7851 -6.0607,-16.41813 -18.1227,-21.53774 -4.3549,-48.57301 24.736,-48.57301 12.5916,0 19.0472,-5.94925 19.0472,-17.55319 0,-11.0063 -6.31,-17.55319 -16.9181,-17.55319 -10.0952,0 -18.9861,7.28046 -18.9861,15.54712 0,3.03418 -1.7234,7.24011 -3.8298,9.3465 -7.2701,7.27005 -15.0573,4.08871 -21.6569,-8.84745 -3.5571,-6.97245 -10.8389,-17.65605 -16.1818,-23.74133 l -9.7144,-11.0641 2.2253,-32.31 2.2253,-32.309998 17.881,-12.170873 c 16.9766,-11.555203 38.2237,-32.464054 59.3704,-58.4252893 l 9.5745,-11.7542876 28.0584,1.9400107 c 23.063,1.5946596 28.6349,3.0170426 31.296,7.9893832 2.5536,4.7714683 1.5143,8.097288 -4.9202,15.74416 -10.2015,12.12383 -10.2864,18.85848 -0.3556,28.188033 16.3386,15.349245 37.6769,-3.071458 26.3731,-22.767128 -2.9984,-5.224469 -5.4517,-14.8869903 -5.4517,-21.4722458 0,-10.1691706 1.9608,-13.5488622 13.0136,-22.4311922 10.6034,-8.521117 14.8378,-10.093181 22.8629,-8.488149 20.2725,4.0545 33.5889,-17.825235 18.9254,-31.095544 -12.1054,-10.955234 -26.8732,-4.310713 -30.8707,13.889713 -3.717,16.923607 -34.1571,26.53915 -60.5883,19.138884 -21.9607,-6.148596 -22.5893,-8.32966 -11.6714,-40.493682 5.2529,-15.474767 10.5397,-37.789505 11.7485,-49.588275 1.2212,-11.91964 4.1642,-23.08424 6.623,-25.12481 7.562,-6.27594 5.417,-21.24281 -3.9214,-27.36157 -7.4756,-4.89817 -9.2239,-4.97859 -16.7553,-0.77077 -11.022,6.15804 -12.483,18.9561 -3.5442,31.04655 l 6.8575,9.27527 -8.6732,17.19383 c -4.7703,9.4566 -10.2759,18.215965 -12.2347,19.465242 -5.0766,3.237734 -26.4971,-18.717512 -28.6206,-29.335182 -3.5907,-17.95334 -21.1201,-25.30111 -31.9118,-13.37643 -11.0158,12.17241 -3.9978,28.38058 13.871,32.03515 8.3451,1.70675 12.8733,5.526611 19.54,16.483505 4.7728,7.844074 8.7906,17.188915 8.9286,20.766256 0.5435,14.089819 -66.5725,86.048907 -80.2575,86.048907 -2.1049,0 -5.1506,-5.026596 -6.768,-11.1702133 -13.9677,-53.0541397 -41.2778,-114.4540547 -67.851,-152.5465247 -7.7119,-11.05484 -14.0216,-21.21674 -14.0216,-22.58199 0,-1.36523 3.7799,-5.96397 8.3998,-10.21944 18.7434,-17.26494 25.5151,-52.91068 16.7011,-87.91411 -2.7024,-10.73224 -2.7024,-15.3066 0,-18.009 6.0655,-6.06555 4.4146,-24.03795 -2.5506,-27.76561 -22.7806,-12.1918 -38.6135,11.49556 -20.614,30.84032 7.8343,8.41979 8.2413,10.44658 6.9816,34.76691 -1.0795,20.84068 -3.0194,28.69538 -10.0496,40.69149 -4.7915,8.17609 -10.6284,14.86561 -12.971,14.86561 -2.3426,0 -15.2273,-11.13032 -28.6327,-24.73405 -22.9767,-23.3166 -24.2703,-25.37936 -22.5729,-35.99457 1.4757,-9.22893 0.3639,-12.61018 -6.1625,-18.74139 -14.0865,-13.2336 -33.9733,-1.19948 -29.2324,17.68951 1.3566,5.4051 6.3936,9.73519 16.2288,13.95105 8.1162,3.47898 14.2617,8.24285 14.2617,11.05538 0,2.71816 -6.4655,8.08331 -14.3678,11.92255 -12.7077,6.17387 -15.6457,6.51836 -25.4268,2.98145 -13.6244,-4.92664 -23.0147,-0.86042 -26.0632,11.28594 -5.7466,22.89626 26.6023,32.61964 34.9496,10.50507 2.8604,-7.578 7.2132,-10.61958 22.8067,-15.93667 l 19.2717,-6.57124 8.9698,10.49563 c 21.8547,25.57213 68.7621,113.599724 64.3437,120.748884 -5.775,9.344106 -83.6384,-6.018766 -95.1882,-18.781154 -8.1988,-9.05961 -3.4432,-27.85934 9.5552,-37.77373 13.441,-10.25196 14.6895,-23.82514 2.9019,-31.54864 -10.049,-6.58439 -17.0857,-5.07051 -24.8561,5.34753 -5.7143,7.66127 -5.8334,9.10905 -1.4469,17.59162 4.1741,8.07163 4.1996,10.35083 0.2014,17.98143 -6.5498,12.50071 -15.3584,11.79593 -12.7945,-1.02367 1.5385,-7.69255 0.3006,-11.41347 -5.839,-17.5532 -9.086,-9.08604 -13.6062,-9.63306 -23.3288,-2.82316 -13.5282,9.47554 -5.7266,33.32969 10.9006,33.32969 6.3867,0 36.2616,31.464411 36.2616,38.190922 0,7.740543 -16.3982,35.220831 -23.1339,38.768012 -13.407,7.060373 -16.1795,20.372139 -6.136,29.46131 14.5659,13.1820321 37.721,-1.380766 29.8083,-18.747192 -4.7739,-10.477692 -2.4045,-15.29898 12.6442,-25.727714 12.4637,-8.637352 13.0223,-8.71982 29.283,-4.324117 9.1174,2.464627 29.5025,4.629 45.3004,4.809702 l 28.7234,0.328564 4.2374,12.503234 c 9.5316,28.124395 16.7146,68.929758 18.4933,105.05643 3.6241,73.607839 -16.7267,133.546509 -60.8771,179.300239 -12.3975,12.84763 -23.9743,23.35934 -25.7263,23.35934 -1.7519,0 -14.591,-14.72074 -28.5313,-32.71276 -75.2056,-97.06427 -123.6259,-148.816191 -212.3831,-226.9966406 -35.9841,-31.6959904 -75.1197,-66.8890554 -86.9681,-78.2068434 l -21.5426,-20.577766 v -66.32384 c 0,-76.83709 -3.6771,-127.35939 -14.5582,-200.02584 -17.6089,-117.59611 -4.9809,-183.685 43.7117,-228.76574 31.6348,-29.28827 69.1018,-43.19911 116.3509,-43.19911 51.2329,0 98.455,15.54297 160.8786,52.95256 79.3875,47.57585 132.0986,88.83705 201.443,157.68575 151.8649,150.77911 253.0307,329.503954 364.0133,643.08512 27.6263,78.05784 29.1378,86.44131 29.6863,164.64719 l 0.4831,68.9025 22.5425,26.84219 c 59.6155,70.98651 97.8712,149.28294 116.3988,238.22895 6.2918,30.20502 7.1777,44.19479 7.3297,115.7409 l 0.1726,81.38298 20.3045,51.06383 c 38.4479,96.69273 67.2832,190.33113 78.4103,254.62523 15.7576,91.05 15.1844,157.3983 -3.1767,367.7152 -10.5066,120.3478 -16.3614,145.2683 -41.271,175.6673 -22.1673,27.0522 -60.738,34.7008 -97.903,19.4141 z m -2217.5825,-177.7783 c -29.865,-10.4921 -80.0371,-37.2861 -110.1064,-58.8014 -55.6097,-39.7903 -120.4022,-106.9796 -158.4898,-164.3528 -35.3812,-53.2965 -103.6123,-203.3414 -165.4473,-363.8298 -47.1808,-122.45447 -42.7005,-103.29165 -42.9051,-183.5106 -0.1417,-55.57452 1.0621,-76.86651 5.7743,-102.12766 12.7515,-68.35797 42.0463,-139.70062 81.306,-198.00703 19.5416,-29.02222 46.8722,-62.09936 51.3107,-62.09936 1.3402,0 6.4997,7.53989 11.4656,16.75532 19.6738,36.51006 42.2546,66.12823 74.8202,98.1383 61.7069,60.65429 129.0414,93.60584 226.7019,110.94125 42.608,7.56322 198.3685,7.37371 267.5004,-0.32541 164.0798,-18.27338 311.9988,-65.03441 427.4843,-135.13886 12.9547,-7.86406 25.4178,-13.58308 27.6958,-12.70896 4.2424,1.62801 20.1085,55.08507 29.0478,97.87028 14.8601,71.12285 18.746,172.73432 9.3613,244.78335 -18.321,140.65518 -76.6904,280.13518 -158.5469,378.86498 -54.3084,65.503 -113.2982,103.3867 -285.3592,183.2597 -120.0205,55.7151 -172.5961,85.363 -227.6322,128.364 -20.1028,15.7068 -38.773,28.4529 -41.4894,28.3246 -2.7163,-0.1283 -12.8377,-3.0082 -22.492,-6.3999 z m 28.7234,-912.72285 c -91.4521,-5.6175 -175.5555,-33.92157 -236.5703,-79.61512 -42.1536,-31.56852 -88.7722,-87.28376 -114.7986,-137.19919 -7.1691,-13.74948 -7.4923,-17.28683 -7.581,-82.97873 -0.1098,-81.2513 1.3881,-88.86185 36.8395,-187.19024 107.7548,-298.869553 207.9293,-474.48381 353.8814,-620.384 78.5188,-78.49082 177.8879,-151.77438 252.6143,-186.3001 86.7075,-40.06133 172.7646,-34.9605 226.6435,13.43371 53.1486,47.73827 65.6502,112.37723 46.4203,240.01507 -13.2773,88.12778 -15.6342,145.8744 -13.2867,325.531929 1.9949,152.665981 2.5112,163.218671 9.7859,199.992261 11.281,57.02557 31.5344,124.01653 72.9892,241.42172 20.2908,57.46606 36.8923,107.173 36.8923,110.45988 0,15.33025 -118.8121,75.71346 -206.8466,105.12444 -100.8563,33.6946 -201.0676,51.40286 -327.7279,57.91251 -66.0512,3.39466 -70.4667,3.387 -129.2553,-0.22404 z"
         id="path1840"
         inkscape:connector-curvature="0" />
    </g>
    <g
       transform="matrix(0.08466666,0,0,0.08466666,6.6634726,-163.00796)"
       id="g60">
      <g
         id="g62"
         clip-path="url(#clipPath66)">
        <g
           id="g68"
           transform="matrix(3.5959182,-2.791466,2.7886212,3.5922537,266.85034,4699.0405)">
          <path
             d="m 33.400002,60.07 c 0.990001,-1.119999 1.77,-2.110001 2.659999,-2.990002 2.970002,-2.920002 5.840001,-5.959999 9.020001,-8.639999 3.43,-2.89 8.36,-2.110001 11.52,1.240001 0.790001,0.830002 2.180001,1.09 3.430001,1.669998 0.540001,1.340001 -0.740002,1.930001 -1.529999,2.680001 -7.170002,6.810001 -12.740002,14.849998 -17.57,23.379997 -1.849998,3.260002 -3.09,6.879997 -4.490002,10.379997 -1.099998,2.75 -1.240001,3.14 -4.239997,2.900002 -5.350001,-0.43 -10.010001,-2.25 -13.380001,-6.849999 -5.87,-7.989998 -12.2000003,-15.650001 -16.6000009,-24.620002 -0.71,-1.459999 -1.23999998,-3.009999 -2.2200000005585,-5.41 C 4.3900032,54.599995 8.0000029,54.569992 10.320003,58.059994 c 1.42,2.139999 2.869999,4.25 4.83,7.170002 0.5,-3.07 0.81,-5.189999 1.189999,-7.290001 2.870001,-15.830002 9.24,-30.110001 21.190001,-40.990002 C 48.400002,7.0399933 61.170002,0.1899929 76.480003,-7.6293945e-6 89.340004,-0.15000764 100.38,4.8899922 110.03,12.989992 c 3.86,3.25 7.13,7.219999 10.56,10.960001 0.89,0.969999 1.37999,2.290001 2.05,3.459999 l -0.78,0.75 c -1.58,-0.979999 -3.22,-1.879999 -4.71,-2.979999 -0.93,-0.690001 -1.65,-1.67 -2.43,-2.55 -10,-11.31 -22.629996,-14.3299995 -36.940001,-11.25 -10.930001,2.350001 -19.959999,8.24 -27.549999,16.31 -8.020001,8.51 -13.46,18.530001 -16.719998,29.750002 -0.150001,0.5 -0.27,1.009998 -0.349998,1.52 -0.02,0.23 0.1,0.48 0.240001,1.110001 z"
             style="fill:#00c2cb;fill-opacity:1;fill-rule:nonzero;stroke:none"
             id="path70"
             inkscape:connector-curvature="0" />
        </g>
      </g>
    </g>
  </g>
</svg>
